^C:\USERS\GUILHERME\DESKTOP\PROJETO BASE PG - OPENGL - VS 2013\INTERMEDIARY\DEBUG\MAINGL.OBJ
/OUT:"C:\USERS\GUILHERME\DESKTOP\PROJETO BASE PG - OPENGL - VS 2013\OUTPUT\DEBUG\PROJETO BASE PG - OPENGL.EXE" /INCREMENTAL /NOLOGO /LIBPATH:"C:\Users\Guilherme\Desktop\Projeto Base PG - OpenGL - VS 2013\Dependencies\Lib\\" kernel32.lib user32.lib gdi32.lib winspool.lib comdlg32.lib advapi32.lib shell32.lib ole32.lib oleaut32.lib uuid.lib odbc32.lib odbccp32.lib /MANIFEST /MANIFESTUAC:"level='asInvoker' uiAccess='false'" /manifest:embed /DEBUG /PDB:"C:\USERS\GUILHERME\DESKTOP\PROJETO BASE PG - OPENGL - VS 2013\OUTPUT\DEBUG\PROJETO BASE PG - OPENGL.PDB" /TLBID:1 /DYNAMICBASE /NXCOMPAT /IMPLIB:"C:\USERS\GUILHERME\DESKTOP\PROJETO BASE PG - OPENGL - VS 2013\OUTPUT\DEBUG\PROJETO BASE PG - OPENGL.LIB" /MACHINE:X86 "C:\USERS\GUILHERME\DESKTOP\PROJETO BASE PG - OPENGL - VS 2013\INTERMEDIARY\DEBUG\MAINGL.OBJ"
^C:\USERS\GUILHERME\DESKTOP\PROJETO BASE PG - OPENGL - VS 2013\INTERMEDIARY\DEBUG\MAINGL.OBJ|C:\USERS\GUILHERME\DESKTOP\PROJETO BASE PG - OPENGL - VS 2013\INTERMEDIARY\DEBUG\MATRIZ.OBJ|C:\USERS\GUILHERME\DESKTOP\PROJETO BASE PG - OPENGL - VS 2013\INTERMEDIARY\DEBUG\TESTE.OBJ|C:\USERS\GUILHERME\DESKTOP\PROJETO BASE PG - OPENGL - VS 2013\INTERMEDIARY\DEBUG\UTILS.OBJ|C:\USERS\GUILHERME\DESKTOP\PROJETO BASE PG - OPENGL - VS 2013\INTERMEDIARY\DEBUG\VETOR.OBJ
/OUT:"C:\USERS\GUILHERME\DESKTOP\PROJETO BASE PG - OPENGL - VS 2013\OUTPUT\DEBUG\PROJETO BASE PG - OPENGL.EXE" /INCREMENTAL /NOLOGO /LIBPATH:"C:\Users\Guilherme\Desktop\Projeto Base PG - OpenGL - VS 2013\Dependencies\Lib\\" kernel32.lib user32.lib gdi32.lib winspool.lib comdlg32.lib advapi32.lib shell32.lib ole32.lib oleaut32.lib uuid.lib odbc32.lib odbccp32.lib /MANIFEST /MANIFESTUAC:"level='asInvoker' uiAccess='false'" /manifest:embed /DEBUG /PDB:"C:\USERS\GUILHERME\DESKTOP\PROJETO BASE PG - OPENGL - VS 2013\OUTPUT\DEBUG\PROJETO BASE PG - OPENGL.PDB" /TLBID:1 /DYNAMICBASE /NXCOMPAT /IMPLIB:"C:\USERS\GUILHERME\DESKTOP\PROJETO BASE PG - OPENGL - VS 2013\OUTPUT\DEBUG\PROJETO BASE PG - OPENGL.LIB" /MACHINE:X86 "C:\USERS\GUILHERME\DESKTOP\PROJETO BASE PG - OPENGL - VS 2013\INTERMEDIARY\DEBUG\MAINGL.OBJ""C:\USERS\GUILHERME\DESKTOP\PROJETO BASE PG - OPENGL - VS 2013\INTERMEDIARY\DEBUG\MATRIZ.OBJ""C:\USERS\GUILHERME\DESKTOP\PROJETO BASE PG - OPENGL - VS 2013\INTERMEDIARY\DEBUG\TESTE.OBJ""C:\USERS\GUILHERME\DESKTOP\PROJETO BASE PG - OPENGL - VS 2013\INTERMEDIARY\DEBUG\UTILS.OBJ""C:\USERS\GUILHERME\DESKTOP\PROJETO BASE PG - OPENGL - VS 2013\INTERMEDIARY\DEBUG\VETOR.OBJ"
